Plotly
…
    name = recode(id, USW00094728 = "CentralPark_NY", 
                      USW00023272 = "SanFrancisco_CA",
                      USC00519397 = "Waikiki_HA"),
    tmin = tmin / 10,
    tmax = tmax / 10,
    date = as.Date(date, "%Y-%m-%d"),
    date_month = as.numeric(format(date, "%m")),
    month = as.factor(date_month),
    month = fct_recode(month,
                       "Jan" = "1", "Feb" = "2", "Mar" = "3", "Apr" = "4", "May" = "5", "June" = "6",
                       "July" = "7", "Aug" = "8", "Sept" = "9", "Oct" = "10", "Nov" = "11", "Dec" = "12")) %>%
  select(name, id, everything())
coast_df

## # A tibble: 1,095 x 8
##    name           id          date        prcp  tmax  tmin date_month month
##    <chr>          <chr>       <date>     <dbl> <dbl> <dbl>      <dbl> <fct>
##  1 CentralPark_NY USW00094728 2017-01-01     0   8.9   4.4          1 Jan  
##  2 CentralPark_NY USW00094728 2017-01-02    53   5     2.8          1 Jan  
##  3 CentralPark_NY USW00094728 2017-01-03   147   6.1   3.9          1 Jan  
##  4 CentralPark_NY USW00094728 2017-01-04     0  11.1   1.1          1 Jan  
##  5 CentralPark_NY USW00094728 2017-01-05     0   1.1  -2.7          1 Jan  
##  6 CentralPark_NY USW00094728 2017-01-06    13   0.6  -3.8          1 Jan  
##  7 CentralPark_NY USW00094728 2017-01-07    81  -3.2  -6.6          1 Jan  
##  8 CentralPark_NY USW00094728 2017-01-08     0  -3.8  -8.8          1 Jan  
##  9 CentralPark_NY USW00094728 2017-01-09     0  -4.9  -9.9          1 Jan  
## 10 CentralPark_NY USW00094728 2017-01-10     0   7.8  -6            1 Jan  
## # … with 1,085 more rows
…
